interactionId,externalId,interactionTypeId,repActionTypeId,repId,facilityId,startDateTime,duration,wasCreatedFromSuggestion,isCompleted,isDeleted,timeZoneId,startDateLocal,createdAt,updatedAt
1,a,1,3,1001,NULL,2018-02-01 12:00:01,30,0,1,0,America/New_York,2018-2-1,2018-02-15 12:00:00,2018-02-15 12:00:00
2,b,1,3,1001,NULL,2018-02-02 12:00:01,30,0,1,0,America/New_York,2018-2-2,2018-02-15 12:00:00,2018-02-15 12:00:00
3,c,1,3,1001,NULL,2018-02-03 12:00:01,30,0,1,0,America/New_York,2018-2-3,2018-02-15 12:00:00,2018-02-15 12:00:00
4,d,1,3,1002,NULL,2018-02-01 12:00:01,30,0,1,0,America/New_York,2018-2-1,2018-02-15 12:00:00,2018-02-15 12:00:00
5,e,1,3,1002,NULL,2018-02-02 12:00:01,30,0,1,0,America/New_York,2018-2-2,2018-02-15 12:00:00,2018-02-15 12:00:00
6,f,1,3,1002,NULL,2018-02-03 12:00:01,30,0,1,0,America/New_York,2018-2-3,2018-02-15 12:00:00,2018-02-15 12:00:00
7,g,1,3,1003,NULL,2018-02-01 12:00:01,30,0,1,0,America/New_York,2018-2-1,2018-02-15 12:00:00,2018-02-15 12:00:00
8,h,1,3,1003,NULL,2018-02-02 12:00:01,30,0,1,0,America/New_York,2018-2-2,2018-02-15 12:00:00,2018-02-15 12:00:00
9,i,1,3,1003,NULL,2018-02-03 12:00:01,30,0,1,0,America/New_York,2018-2-3,2018-02-15 12:00:00,2018-02-15 12:00:00
10,j,1,3,1004,NULL,2018-02-01 12:00:01,30,0,1,0,America/New_York,2018-2-1,2018-02-15 12:00:00,2018-02-15 12:00:00
11,k,1,3,1004,NULL,2018-02-02 12:00:01,30,0,1,0,America/New_York,2018-2-2,2018-02-15 12:00:00,2018-02-15 12:00:00
12,l,1,3,1004,NULL,2018-02-03 12:00:01,30,1,1,0,America/New_York,2018-2-3,2018-02-15 12:00:00,2018-02-15 12:00:00
13,m,1,3,1005,NULL,2018-02-01 12:00:01,30,0,1,0,America/New_York,2018-2-1,2018-02-15 12:00:00,2018-02-15 12:00:00
14,n,1,3,1005,NULL,2018-02-02 12:00:01,30,0,1,0,America/New_York,2018-2-2,2018-02-15 12:00:00,2018-02-15 12:00:00
15,o,1,3,1005,NULL,2018-02-03 12:00:01,30,1,1,0,America/New_York,2018-2-3,2018-02-15 12:00:00,2018-02-15 12:00:00
16,p,1,3,1006,NULL,2018-02-01 12:00:01,30,0,1,0,America/New_York,2018-2-1,2018-02-15 12:00:00,2018-02-15 12:00:00
17,q,1,3,1006,NULL,2018-02-02 12:00:01,30,1,1,0,America/New_York,2018-2-2,2018-02-15 12:00:00,2018-02-15 12:00:00
18,r,1,3,1006,NULL,2018-02-03 12:00:01,30,1,1,0,America/New_York,2018-2-3,2018-02-15 12:00:00,2018-02-15 12:00:00
19,s,1,3,1007,NULL,2018-02-01 12:00:01,30,0,1,0,America/New_York,2018-2-1,2018-02-15 12:00:00,2018-02-15 12:00:00
20,t,1,3,1007,NULL,2018-02-02 12:00:01,30,1,1,0,America/New_York,2018-2-2,2018-02-15 12:00:00,2018-02-15 12:00:00
21,u,1,3,1007,NULL,2018-02-03 12:00:01,30,1,1,0,America/New_York,2018-2-3,2018-02-15 12:00:00,2018-02-15 12:00:00
22,v,1,3,1008,NULL,2018-02-01 12:00:01,30,1,1,0,America/New_York,2018-2-1,2018-02-15 12:00:00,2018-02-15 12:00:00
23,w,1,3,1008,NULL,2018-02-02 12:00:01,30,1,1,0,America/New_York,2018-2-2,2018-02-15 12:00:00,2018-02-15 12:00:00
24,x,1,3,1008,NULL,2018-02-03 12:00:01,30,1,1,0,America/New_York,2018-2-3,2018-02-15 12:00:00,2018-02-15 12:00:00
25,aa,1,3,1009,NULL,2018-02-01 12:00:01,30,1,1,0,America/New_York,2018-2-1,2018-02-15 12:00:00,2018-02-15 12:00:00
26,y,1,3,1009,NULL,2018-02-02 12:00:01,30,1,1,0,America/New_York,2018-2-2,2018-02-15 12:00:00,2018-02-15 12:00:00
27,z,1,3,1009,NULL,2018-02-03 12:00:01,30,1,1,0,America/New_York,2018-2-3,2018-02-15 12:00:00,2018-02-15 12:00:00
28,ab,1,3,1010,NULL,2018-02-01 12:00:01,30,1,1,0,America/New_York,2018-2-1,2018-02-15 12:00:00,2018-02-15 12:00:00
29,ac,1,3,1010,NULL,2018-02-02 12:00:01,30,1,1,0,America/New_York,2018-2-2,2018-02-15 12:00:00,2018-02-15 12:00:00
30,ad,1,3,1010,NULL,2018-02-03 12:00:01,30,1,1,0,America/New_York,2018-2-3,2018-02-15 12:00:00,2018-02-15 12:00:00
