{"repId": 1004, "runId": 2, "publishedDate": "2018-02-02 00:00:00", "startDateLocal": "2018-02-02", "nextPublishedDate": "2018-02-03 00:00:00"}
{"repId": 1006, "runId": 3, "publishedDate": "2018-02-03 00:00:00", "startDateLocal": "2018-02-03", "nextPublishedDate": null}
{"repId": 1008, "runId": 2, "publishedDate": "2018-02-02 00:00:00", "startDateLocal": "2018-02-02", "nextPublishedDate": "2018-02-03 00:00:00"}
{"repId": 1010, "runId": 2, "publishedDate": "2018-02-02 00:00:00", "startDateLocal": "2018-02-02", "nextPublishedDate": "2018-02-03 00:00:00"}
{"repId": 1010, "runId": 1, "publishedDate": "2018-02-01 00:00:00", "startDateLocal": "2018-02-01", "nextPublishedDate": "2018-02-02 00:00:00"}
{"repId": 1004, "runId": 1, "publishedDate": "2018-02-01 00:00:00", "startDateLocal": "2018-02-01", "nextPublishedDate": "2018-02-02 00:00:00"}
{"repId": 1008, "runId": 3, "publishedDate": "2018-02-03 00:00:00", "startDateLocal": "2018-02-03", "nextPublishedDate": null}
{"repId": 1001, "runId": 2, "publishedDate": "2018-02-02 00:00:00", "startDateLocal": "2018-02-02", "nextPublishedDate": "2018-02-03 00:00:00"}
{"repId": 1001, "runId": 3, "publishedDate": "2018-02-03 00:00:00", "startDateLocal": "2018-02-03", "nextPublishedDate": null}
{"repId": 1002, "runId": 1, "publishedDate": "2018-02-01 00:00:00", "startDateLocal": "2018-02-01", "nextPublishedDate": "2018-02-02 00:00:00"}
{"repId": 1009, "runId": 2, "publishedDate": "2018-02-02 00:00:00", "startDateLocal": "2018-02-02", "nextPublishedDate": "2018-02-03 00:00:00"}
{"repId": 1003, "runId": 3, "publishedDate": "2018-02-03 00:00:00", "startDateLocal": "2018-02-03", "nextPublishedDate": null}
{"repId": 1010, "runId": 3, "publishedDate": "2018-02-03 00:00:00", "startDateLocal": "2018-02-03", "nextPublishedDate": null}
{"repId": 1003, "runId": 1, "publishedDate": "2018-02-01 00:00:00", "startDateLocal": "2018-02-01", "nextPublishedDate": "2018-02-02 00:00:00"}
{"repId": 1002, "runId": 2, "publishedDate": "2018-02-02 00:00:00", "startDateLocal": "2018-02-02", "nextPublishedDate": "2018-02-03 00:00:00"}
{"repId": 1005, "runId": 2, "publishedDate": "2018-02-02 00:00:00", "startDateLocal": "2018-02-02", "nextPublishedDate": "2018-02-03 00:00:00"}
{"repId": 1002, "runId": 3, "publishedDate": "2018-02-03 00:00:00", "startDateLocal": "2018-02-03", "nextPublishedDate": null}
{"repId": 1007, "runId": 3, "publishedDate": "2018-02-03 00:00:00", "startDateLocal": "2018-02-03", "nextPublishedDate": null}
{"repId": 1003, "runId": 2, "publishedDate": "2018-02-02 00:00:00", "startDateLocal": "2018-02-02", "nextPublishedDate": "2018-02-03 00:00:00"}
{"repId": 1005, "runId": 3, "publishedDate": "2018-02-03 00:00:00", "startDateLocal": "2018-02-03", "nextPublishedDate": null}
{"repId": 1005, "runId": 1, "publishedDate": "2018-02-01 00:00:00", "startDateLocal": "2018-02-01", "nextPublishedDate": "2018-02-02 00:00:00"}
{"repId": 1006, "runId": 2, "publishedDate": "2018-02-02 00:00:00", "startDateLocal": "2018-02-02", "nextPublishedDate": "2018-02-03 00:00:00"}
{"repId": 1009, "runId": 1, "publishedDate": "2018-02-01 00:00:00", "startDateLocal": "2018-02-01", "nextPublishedDate": "2018-02-02 00:00:00"}
{"repId": 1008, "runId": 1, "publishedDate": "2018-02-01 00:00:00", "startDateLocal": "2018-02-01", "nextPublishedDate": "2018-02-02 00:00:00"}
{"repId": 1007, "runId": 2, "publishedDate": "2018-02-02 00:00:00", "startDateLocal": "2018-02-02", "nextPublishedDate": "2018-02-03 00:00:00"}
{"repId": 1001, "runId": 1, "publishedDate": "2018-02-01 00:00:00", "startDateLocal": "2018-02-01", "nextPublishedDate": "2018-02-02 00:00:00"}
{"repId": 1006, "runId": 1, "publishedDate": "2018-02-01 00:00:00", "startDateLocal": "2018-02-01", "nextPublishedDate": "2018-02-02 00:00:00"}
{"repId": 1007, "runId": 1, "publishedDate": "2018-02-01 00:00:00", "startDateLocal": "2018-02-01", "nextPublishedDate": "2018-02-02 00:00:00"}
{"repId": 1009, "runId": 3, "publishedDate": "2018-02-03 00:00:00", "startDateLocal": "2018-02-03", "nextPublishedDate": null}
{"repId": 1004, "runId": 3, "publishedDate": "2018-02-03 00:00:00", "startDateLocal": "2018-02-03", "nextPublishedDate": null}
