{"externalId": "REP_5", "syncStart": "2018-02-01 12:00:01"}
{"externalId": "REP_5", "syncStart": "2018-02-02 12:00:01"}
{"externalId": "REP_5", "syncStart": "2018-02-03 12:00:01"}
{"externalId": "REP_1", "syncStart": "2018-02-01 12:00:01"}
{"externalId": "REP_1", "syncStart": "2018-02-02 12:00:01"}
{"externalId": "REP_1", "syncStart": "2018-02-03 12:00:01"}
{"externalId": "REP_8", "syncStart": "2018-02-01 12:00:01"}
{"externalId": "REP_8", "syncStart": "2018-02-02 12:00:01"}
{"externalId": "REP_8", "syncStart": "2018-02-03 12:00:01"}
{"externalId": "REP_7", "syncStart": "2018-02-01 12:00:01"}
{"externalId": "REP_7", "syncStart": "2018-02-02 12:00:01"}
{"externalId": "REP_7", "syncStart": "2018-02-03 12:00:01"}
{"externalId": "REP_10", "syncStart": "2018-02-01 12:00:01"}
{"externalId": "REP_10", "syncStart": "2018-02-02 12:00:01"}
{"externalId": "REP_10", "syncStart": "2018-02-03 12:00:01"}
{"externalId": "REP_3", "syncStart": "2018-02-01 12:00:01"}
{"externalId": "REP_3", "syncStart": "2018-02-02 12:00:01"}
{"externalId": "REP_3", "syncStart": "2018-02-03 12:00:01"}
{"externalId": "REP_9", "syncStart": "2018-02-01 12:00:01"}
{"externalId": "REP_9", "syncStart": "2018-02-02 12:00:01"}
{"externalId": "REP_9", "syncStart": "2018-02-03 12:00:01"}
{"externalId": "REP_2", "syncStart": "2018-02-01 12:00:01"}
{"externalId": "REP_2", "syncStart": "2018-02-02 12:00:01"}
{"externalId": "REP_2", "syncStart": "2018-02-03 12:00:01"}
{"externalId": "REP_6", "syncStart": "2018-02-01 12:00:01"}
{"externalId": "REP_6", "syncStart": "2018-02-02 12:00:01"}
{"externalId": "REP_6", "syncStart": "2018-02-03 12:00:01"}
{"externalId": "REP_4", "syncStart": "2018-02-01 12:00:01"}
{"externalId": "REP_4", "syncStart": "2018-02-02 12:00:01"}
{"externalId": "REP_4", "syncStart": "2018-02-03 12:00:01"}
