year, month, repUID, repName, seConfigName, repTeamUID, repTeamName, suggestionType, suggestionReferenceId, territoryId, territoryName, suggestionsDelivered, actionTaken 
2018,1,i,Rep9,1,a,A,A,Target,z1,1,territoryA,1,Suggestions Completed
2018,1,j,Rep10,1,a,A,A,Trigger,ad1,1,territoryA,1,Suggestions Completed
2018,1,b,Rep2,1,a,A,A,Trigger,aj1,1,territoryA,1,Suggestions Dismissed
2018,1,f,Rep6,1,a,A,A,Trigger,r1,1,territoryA,1,Suggestions Completed
2018,1,a,Rep1,1,a,A,A,Target,ae,1,territoryA,1,No Action Taken
2018,1,g,Rep7,1,a,A,A,Target,as1,1,territoryA,1,No Action Taken
2018,1,j,Rep10,1,a,A,A,Target,ac1,1,territoryA,1,Suggestions Completed
2018,1,e,Rep5,1,a,A,A,Target,o1,1,territoryA,1,Suggestions Completed
2018,1,c,Rep3,1,a,A,A,Target,am1,1,territoryA,1,No Action Taken
2018,1,f,Rep6,1,a,A,A,Trigger,ar1,1,territoryA,1,Suggestions Dismissed
2018,1,e,Rep5,1,a,A,A,Trigger,aq1,1,territoryA,1,No Action Taken
2018,1,a,Rep1,1,a,A,A,Trigger,af1,1,territoryA,1,Suggestions Dismissed
2018,1,d,Rep4,1,a,A,A,Trigger,l1,1,territoryA,1,Suggestions Completed
2018,1,h,Rep8,1,a,A,A,Target,w1,1,territoryA,1,Suggestions Completed
2018,1,g,Rep7,1,a,A,A,Trigger,t1,1,territoryA,1,Suggestions Completed
2018,1,h,Rep8,1,a,A,A,Trigger,v1,1,territoryA,1,Suggestions Completed
2018,1,b,Rep2,1,a,A,A,Trigger,ah1,1,territoryA,1,Suggestions Dismissed
2018,1,b,Rep2,1,a,A,A,Target,ai1,1,territoryA,1,No Action Taken
2018,1,g,Rep7,1,a,A,A,Target,u1,1,territoryA,1,Suggestions Completed
2018,1,f,Rep6,1,a,A,A,Target,q1,1,territoryA,1,Suggestions Completed
2018,1,e,Rep5,1,a,A,A,Target,ap1,1,territoryA,1,Suggestions Dismissed
2018,1,i,Rep9,1,a,A,A,Target,aa1,1,territoryA,1,Suggestions Completed
2018,1,i,Rep9,1,a,A,A,Trigger,y1,1,territoryA,1,Suggestions Completed
2018,1,a,Rep1,1,a,A,A,Target,ag1,1,territoryA,1,No Action Taken
2018,1,j,Rep10,1,a,A,A,Trigger,ab1,1,territoryA,1,Suggestions Completed
2018,1,d,Rep4,1,a,A,A,Trigger,an1,1,territoryA,1,Suggestions Dismissed
2018,1,d,Rep4,1,a,A,A,Target,ao1,1,territoryA,1,No Action Taken
2018,1,c,Rep3,1,a,A,A,Trigger,al1,1,territoryA,1,Suggestions Dismissed
2018,1,h,Rep8,1,a,A,A,Trigger,x1,1,territoryA,1,Suggestions Completed
2018,1,c,Rep3,1,a,A,A,Target,ak1,1,territoryA,1,No Action Taken
