runUID, repId, startDateLocal, startDateTime, publishedDate
3,1001,2018-02-03,2018-02-03T00:00:00.000-08:00,2018-02-03 00:00:00
3,1002,2018-02-03,2018-02-03T00:00:00.000-08:00,2018-02-03 00:00:00
3,1003,2018-02-03,2018-02-03T00:00:00.000-08:00,2018-02-03 00:00:00
3,1004,2018-02-03,2018-02-03T00:00:00.000-08:00,2018-02-03 00:00:00
3,1005,2018-02-03,2018-02-03T00:00:00.000-08:00,2018-02-03 00:00:00
3,1006,2018-02-03,2018-02-03T00:00:00.000-08:00,2018-02-03 00:00:00
3,1007,2018-02-03,2018-02-03T00:00:00.000-08:00,2018-02-03 00:00:00
3,1008,2018-02-03,2018-02-03T00:00:00.000-08:00,2018-02-03 00:00:00
3,1009,2018-02-03,2018-02-03T00:00:00.000-08:00,2018-02-03 00:00:00
3,1010,2018-02-03,2018-02-03T00:00:00.000-08:00,2018-02-03 00:00:00
1,1001,2018-02-01,2018-02-01T00:00:00.000-08:00,2018-02-01 00:00:00
1,1002,2018-02-01,2018-02-01T00:00:00.000-08:00,2018-02-01 00:00:00
1,1003,2018-02-01,2018-02-01T00:00:00.000-08:00,2018-02-01 00:00:00
1,1004,2018-02-01,2018-02-01T00:00:00.000-08:00,2018-02-01 00:00:00
1,1005,2018-02-01,2018-02-01T00:00:00.000-08:00,2018-02-01 00:00:00
1,1006,2018-02-01,2018-02-01T00:00:00.000-08:00,2018-02-01 00:00:00
1,1007,2018-02-01,2018-02-01T00:00:00.000-08:00,2018-02-01 00:00:00
1,1008,2018-02-01,2018-02-01T00:00:00.000-08:00,2018-02-01 00:00:00
1,1009,2018-02-01,2018-02-01T00:00:00.000-08:00,2018-02-01 00:00:00
1,1010,2018-02-01,2018-02-01T00:00:00.000-08:00,2018-02-01 00:00:00
2,1001,2018-02-02,2018-02-02T00:00:00.000-08:00,2018-02-02 00:00:00
2,1002,2018-02-02,2018-02-02T00:00:00.000-08:00,2018-02-02 00:00:00
2,1003,2018-02-02,2018-02-02T00:00:00.000-08:00,2018-02-02 00:00:00
2,1004,2018-02-02,2018-02-02T00:00:00.000-08:00,2018-02-02 00:00:00
2,1005,2018-02-02,2018-02-02T00:00:00.000-08:00,2018-02-02 00:00:00
2,1006,2018-02-02,2018-02-02T00:00:00.000-08:00,2018-02-02 00:00:00
2,1007,2018-02-02,2018-02-02T00:00:00.000-08:00,2018-02-02 00:00:00
2,1008,2018-02-02,2018-02-02T00:00:00.000-08:00,2018-02-02 00:00:00
2,1009,2018-02-02,2018-02-02T00:00:00.000-08:00,2018-02-02 00:00:00
2,1010,2018-02-02,2018-02-02T00:00:00.000-08:00,2018-02-02 00:00:00
