﻿"productUID","channelUID","goal","paramName","paramValue","createdAt","updatedAt"
a00A0000000quNsIAI,SEND_CHANNEL,CLICK,LE_MS_addPredictorsFromAccountProduct,email_akt;barrierLyricaTop3_akt;driverLyricaTop3_akt;dblLyrComAccessPct_akt;facilityId;enumParentSpecialty_akt;enumHcpSpecialty_akt;barrierLyrica_akt;driverLyricaTop2_akt;barrierLyricaTop2_akt;enumLyrInsightCode_akt;nrx3moChange_akt;brandFlag_akt;driverLyrica_akt;xtandiBrandPriority_akt;trx3moChange_akt;chxZeroCostSharePct_akt;eucrisaQuintile_akt;chxEucBalanceFlag_akt;dblNRTCurr3mTRxShare_akt;chxComPlans_akt;enumVTETargetPriority_akt;chxComPct_akt;dblLyrOverallAccessPct_akt;LoTProxy_akt;productPositionList_akt;enumLyrDosingCode_akt;trx4wChange_akt;enumChxZDCPHotList_akt;dblLyrMedDAccessPct_akt;enumDuloxetinePreference_akt;visitsRemainingChx_akt;chxR2_13wTRx_akt;visitsGoalChx_akt;enumBrandedPreference_akt;nrx4wChange_akt;driverLyricaTop1_akt;enumCL1RemainingODFlag_akt;enumPHR3BrandPriorityOrder_akt;embedaBrandFlag_akt,2019-07-26 14:30:17,2019-07-26 14:30:17
a00A0000000quNsIAI,SEND_CHANNEL,CLICK,LE_MS_includeVisitChannel,"0",2019-07-26 14:30:17,2019-07-26 14:30:17
a00A0000000quNsIAI,SEND_CHANNEL,CLICK,LE_MS_removeMessageClicks,"0",2019-07-26 14:30:17,2019-07-26 14:30:17
a00A0000000quNsIAI,SEND_CHANNEL,CLICK,LE_MS_removeMessageOpens,"0",2019-07-26 14:30:17,2019-07-26 14:30:17
a00A0000000quNsIAI,SEND_CHANNEL,CLICK,LE_MS_removeMessageSends,"0",2019-07-26 14:30:17,2019-07-26 14:30:17
a00A0000000quNsIAI,SEND_CHANNEL,OPEN,LE_MS_addPredictorsFromAccountProduct,email_akt;barrierLyricaTop3_akt;driverLyricaTop3_akt;chxComPlans_akt;visitsGoalChx_akt;enumHcpSpecialty_akt;chxR2_13wTRx_akt;enumParentSpecialty_akt;facilityId;hasSharedTargetC2C3_akt;dblLyrComAccessPct_akt;driverLyrica_akt;barrierLyrica_akt;LoTProxy_akt;barrierLyricaTop2_akt;enumLyrInsightCode_akt;driverLyricaTop2_akt;visitsRemainingChx_akt;brandFlag_akt;chxEucBalanceFlag_akt;productPositionList_akt;chxComPct_akt;chxKeyComTrgt_akt;nrx3moChange_akt;trx4wChange_akt;enumVTETargetPriority_akt;dblLyrOverallAccessPct_akt;chxZeroCostSharePct_akt;emailUnsubscribe_akt;trx3moChange_akt;eucrisaQuintile_akt;dblNRTCurr3mTRxShare_akt;dblLyrMedDAccessPct_akt;priorityChantix_akt;enumLyrDosingCode_akt;nrx4wChange_akt;enumPHR1_PHR2BrandPriorityOrder_akt;barrierLyricaTop1_akt;chxR1wNRx_akt;enumDuloxetinePreference_akt,2019-07-26 14:29:03,2019-07-26 14:29:03
a00A0000000quNsIAI,SEND_CHANNEL,OPEN,LE_MS_includeVisitChannel,"0",2019-07-26 14:29:03,2019-07-26 14:29:03
a00A0000000quNsIAI,SEND_CHANNEL,OPEN,LE_MS_removeMessageClicks,"0",2019-07-26 14:29:03,2019-07-26 14:29:03
a00A0000000quNsIAI,SEND_CHANNEL,OPEN,LE_MS_removeMessageOpens,"0",2019-07-26 14:29:03,2019-07-26 14:29:03
a00A0000000quNsIAI,SEND_CHANNEL,OPEN,LE_MS_removeMessageSends,"0",2019-07-26 14:29:03,2019-07-26 14:29:03
a00A00000095y22IAA,SEND_CHANNEL,CLICK,LE_MS_addPredictorsFromAccountProduct,driverLyricaTop3_akt;barrierLyricaTop3_akt;email_akt;dblWarfarin3mNRxShareChgPct_akt;dblSSI12mMedDTRxMktShare_akt;enumParentSpecialty_akt;facilityId;dblLyrComAccessPct_akt;brandFlag_akt;enumLyrInsightCode_akt;enumVTETargetPriority_akt;driverLyrica_akt;driverLyricaTop2_akt;dblElq4wNRxShareChgPct_akt;dblXar3mTRxCurrComMktShare_akt;dblLyrOverallAccessPct_akt;enumChxZDCPHotList_akt;dblXar3mTRxCurrMedDMktShare_akt;dblElq3mTRxShareChgPct_akt;dblUHG12mMedDTRxMktShare_akt;barrierLyricaTop2_akt;dblELQ3mTRxCurrComMktShare_akt;xtandiBrandPriority_akt;barrierLyrica_akt;dblOAC3mTRxMedDBusPct_akt;dblXarelto3mNRxCurrMktShare_akt;LyrChannelFocus_akt;visitsRemainingElq_akt;dblNOAC3mTRxCurrMktShare_akt;dblElq4wNRxCurrMktShare_akt;dblElq3mNRxPrevMktShare_akt;dblNOAC3mNRxPrevMktShare_akt;dblOAC3mTRxComBusPct_akt;dblElq3mNRxShareChgPct_akt;dblWarfarin3mTRxCurrMktShare_akt;dblWarfarin3mTRxPrevMktShare_akt;dblElq4wTRxPrevMktShare_akt;eucrisaQuintile_akt;dblWarfarin3mNRxCurrMktShare_akt;chxEucBalanceFlag_akt,2019-07-26 14:33:09,2019-07-26 14:33:09
a00A00000095y22IAA,SEND_CHANNEL,CLICK,LE_MS_includeVisitChannel,"0",2019-07-26 14:33:09,2019-07-26 14:33:09
a00A00000095y22IAA,SEND_CHANNEL,CLICK,LE_MS_removeMessageClicks,"0",2019-07-26 14:33:09,2019-07-26 14:33:09
a00A00000095y22IAA,SEND_CHANNEL,CLICK,LE_MS_removeMessageOpens,"0",2019-07-26 14:33:09,2019-07-26 14:33:09
a00A00000095y22IAA,SEND_CHANNEL,CLICK,LE_MS_removeMessageSends,"0",2019-07-26 14:33:09,2019-07-26 14:33:09
a00A00000095y22IAA,SEND_CHANNEL,OPEN,LE_MS_addPredictorsFromAccountProduct,email_akt;barrierLyricaTop3_akt;driverLyricaTop3_akt;visitsGoalElq_akt;enumParentSpecialty_akt;dblSSI12mMedDTRxMktShare_akt;driverLyrica_akt;enumHcpSpecialty_akt;dblUHG12mMedDTRxMktShare_akt;driverLyricaTop2_akt;enumLyrInsightCode_akt;brandFlag_akt;visitsRemainingElq_akt;barrierLyrica_akt;barrierLyricaTop2_akt;dblElq3mNRxPrevMktShare_akt;facilityId;dblXarelto4wNRxCurrMktShare_akt;dblElq3mNRxShareChgPct_akt;enumVTETargetPriority_akt;dblELQ3mTRxCurrComMktShare_akt;dblWar3mTRxCurrComMktShare_akt;dblNOAC3mNRxVolume_akt;dblElq4wTRxShareChgPct_akt;dblOAC3mTRxComBusPct_akt;dblELQ3mNRxCurrMedDShareChgPct_akt;dblElq4wNRxPrevMktShare_akt;dblNOAC3mNRxCurrMktShare_akt;dblElq4wNRxShareChgPct_akt;dblXarelto3mNRxCurrMktShare_akt;dblELQ3mTRxCurrMedDMktShare_akt;dblWar3mTRxCurrMedDMktShare_akt;dblAetna12mMedDTRxMktShare_akt;dblXar3mTRxCurrMedDMktShare_akt;eucrisaQuintile_akt;dblWarfarin3mNRxCurrMktShare_akt;dblLyrOverallAccessPct_akt;dblLyrComAccessPct_akt;dblElq3mTRxPrevMktShare_akt;dblNOAC3mTRxCurrMktShare_akt,2019-07-26 14:31:46,2019-07-26 14:31:46
a00A00000095y22IAA,SEND_CHANNEL,OPEN,LE_MS_includeVisitChannel,"0",2019-07-26 14:31:46,2019-07-26 14:31:46
a00A00000095y22IAA,SEND_CHANNEL,OPEN,LE_MS_removeMessageClicks,"0",2019-07-26 14:31:46,2019-07-26 14:31:46
a00A00000095y22IAA,SEND_CHANNEL,OPEN,LE_MS_removeMessageOpens,"0",2019-07-26 14:31:46,2019-07-26 14:31:46
a00A00000095y22IAA,SEND_CHANNEL,OPEN,LE_MS_removeMessageSends,"0",2019-07-26 14:31:46,2019-07-26 14:31:46
