externalId,suggestionLifeCycleId,runId,runUID,repTeamId,repTeamUID,repTeamName,seConfigId,seConfigName,runGroupId,suggestedDate,startDateLocal,repId,repUID,repName,repCreatedAt,accountId,accountUID,runRepDateSuggestionId,accountName,detailRepActionTypeId,detailRepActionTypeUID,detailRepActionName,runRepDateSuggestionDetailId,productId,productUID,productName,messageId,messageUID,messageName,suggestionUID,suggestionReferenceId,lastViewedAt,viewedAt,viewedDuration,actionTaken,actionTaken_dt,isSuggestionCompleted,isSuggestionCompletedDirect,isSuggestionCompletedInfer,isSuggestionDismissed,dismissReasonType,dismissReason,dismissReason_dt,isSuggestionActive,facilityLatitude,facilityLongitude,facilityGeoLocationString,repLatitude,repLongitude,territoryCityName,districtName,territoryId,territoryName,regionName,regionGroup,dismissedAt,dismissCount,lastPublishedAt,createdAt,updatedAt,reportedInteractionUID,inferredInteractionUID,interactionUID,completedAt,inferredAt,isFirstSuggestedDate,isLastSuggestedDate,suggestionDriver,timeoffday,isHighestRunidForDay,holiday_weekend_Flag,crmFieldName,reasonText,reasonRank,runRepDateSuggestionReasonId,repRole,repBag,dmUID,dmName,interactionId,isCompleted,startDateTime,isREMix,isDSESpark,arc_createdAt,arc_updatedAt
ae,NULL,1,1,NULL,,NULL,1,a,NULL,2018-02-01,2018-01-15,1001,a,Rep1,NULL,NULL,NULL,NULL,NULL,3,NULL,NULL,NULL,NULL,NULL,NULL,NULL,NULL,NULL,NULL,ae,NULL,NULL,NULL,No Action Taken,NULL,NULL,NULL,NULL,NULL,NULL,NA,NULL,NULL,NULL,NULL,NULL,NULL,NULL,NULL,NULL,NULL,NULL,NULL,NULL,NULL,NULL,NULL,2018-02-15 12:00:00,2018-02-15 12:00:00,NULL,NULL,NULL,NULL,NULL,NULL,NULL,Target,NULL,NULL,NULL,NULL,NULL,NULL,NULL,NULL,NULL,NULL,NULL,NULL,0,2018-01-15 12:00:00,NULL,NULL,2019-01-01 12:00:01,2019-01-01 12:00:01
af,NULL,2,2,NULL,NULL,NULL,1,a,NULL,2018-02-02,2018-01-15,1001,a,Rep1,NULL,NULL,NULL,NULL,NULL,3,NULL,NULL,NULL,NULL,NULL,NULL,NULL,NULL,NULL,NULL,af1,NULL,NULL,NULL,Suggestions Dismissed,NULL,NULL,NULL,NULL,NULL,NULL,NA,NULL,NULL,NULL,NULL,NULL,NULL,NULL,NULL,NULL,NULL,NULL,NULL,NULL,NULL,NULL,NULL,2018-02-15 12:00:00,2018-02-15 12:00:00,NULL,NULL,NULL,NULL,NULL,NULL,NULL,Trigger,NULL,NULL,NULL,NULL,NULL,NULL,NULL,NULL,NULL,NULL,NULL,NULL,0,2018-01-15 12:00:00,NULL,NULL,2019-01-01 12:00:01,2019-01-01 12:00:01
ag,NULL,3,3,NULL,NULL,NULL,1,a,NULL,2018-02-03,2018-01-15,1001,a,Rep1,NULL,NULL,NULL,NULL,NULL,3,NULL,NULL,NULL,NULL,NULL,NULL,NULL,NULL,NULL,NULL,ag1,NULL,NULL,NULL,No Action Taken,NULL,NULL,NULL,NULL,NULL,NULL,NA,NULL,NULL,NULL,NULL,NULL,NULL,NULL,NULL,NULL,NULL,NULL,NULL,NULL,NULL,NULL,NULL,2018-02-15 12:00:00,2018-02-15 12:00:00,NULL,NULL,NULL,NULL,NULL,NULL,NULL,Target,NULL,NULL,NULL,NULL,NULL,NULL,NULL,NULL,NULL,NULL,NULL,NULL,0,2018-01-15 12:00:00,NULL,NULL,2019-01-01 12:00:01,2019-01-01 12:00:01
ah,NULL,1,1,NULL,NULL,NULL,1,a,NULL,2018-02-01,2018-01-15,1002,b,Rep2,NULL,NULL,NULL,NULL,NULL,3,NULL,NULL,NULL,NULL,NULL,NULL,NULL,NULL,NULL,NULL,ah1,NULL,NULL,NULL,Suggestions Dismissed,NULL,NULL,NULL,NULL,NULL,NULL,NA,NULL,NULL,NULL,NULL,NULL,NULL,NULL,NULL,NULL,NULL,NULL,NULL,NULL,NULL,NULL,NULL,2018-02-15 12:00:00,2018-02-15 12:00:00,NULL,NULL,NULL,NULL,NULL,NULL,NULL,Trigger,NULL,NULL,NULL,NULL,NULL,NULL,NULL,NULL,NULL,NULL,NULL,NULL,0,2018-01-15 12:00:00,NULL,NULL,2019-01-01 12:00:01,2019-01-01 12:00:01
ai,NULL,2,2,NULL,NULL,NULL,1,a,NULL,2018-02-02,2018-01-15,1002,b,Rep2,NULL,NULL,NULL,NULL,NULL,3,NULL,NULL,NULL,NULL,NULL,NULL,NULL,NULL,NULL,NULL,ai1,NULL,NULL,NULL,No Action Taken,NULL,NULL,NULL,NULL,NULL,NULL,NA,NULL,NULL,NULL,NULL,NULL,NULL,NULL,NULL,NULL,NULL,NULL,NULL,NULL,NULL,NULL,NULL,2018-02-15 12:00:00,2018-02-15 12:00:00,NULL,NULL,NULL,NULL,NULL,NULL,NULL,Target,NULL,NULL,NULL,NULL,NULL,NULL,NULL,NULL,NULL,NULL,NULL,NULL,0,2018-01-15 12:00:00,NULL,NULL,2019-01-01 12:00:01,2019-01-01 12:00:01
aj,NULL,3,3,NULL,NULL,NULL,1,a,NULL,2018-02-03,2018-01-15,1002,b,Rep2,NULL,NULL,NULL,NULL,NULL,3,NULL,NULL,NULL,NULL,NULL,NULL,NULL,NULL,NULL,NULL,aj1,NULL,NULL,NULL,Suggestions Dismissed,NULL,NULL,NULL,NULL,NULL,NULL,NA,NULL,NULL,NULL,NULL,NULL,NULL,NULL,NULL,NULL,NULL,NULL,NULL,NULL,NULL,NULL,NULL,2018-02-15 12:00:00,2018-02-15 12:00:00,NULL,NULL,NULL,NULL,NULL,NULL,NULL,Trigger,NULL,NULL,NULL,NULL,NULL,NULL,NULL,NULL,NULL,NULL,NULL,NULL,0,2018-01-15 12:00:00,NULL,NULL,2019-01-01 12:00:01,2019-01-01 12:00:01
ak,NULL,1,1,NULL,NULL,NULL,1,a,NULL,2018-02-01,2018-01-15,1003,c,Rep3,NULL,NULL,NULL,NULL,NULL,3,NULL,NULL,NULL,NULL,NULL,NULL,NULL,NULL,NULL,NULL,ak1,NULL,NULL,NULL,No Action Taken,NULL,NULL,NULL,NULL,NULL,NULL,NA,NULL,NULL,NULL,NULL,NULL,NULL,NULL,NULL,NULL,NULL,NULL,NULL,NULL,NULL,NULL,NULL,2018-02-15 12:00:00,2018-02-15 12:00:00,NULL,NULL,NULL,NULL,NULL,NULL,NULL,Target,NULL,NULL,NULL,NULL,NULL,NULL,NULL,NULL,NULL,NULL,NULL,NULL,0,2018-01-15 12:00:00,NULL,NULL,2019-01-01 12:00:01,2019-01-01 12:00:01
al,NULL,2,2,NULL,NULL,NULL,1,a,NULL,2018-02-02,2018-01-15,1003,c,Rep3,NULL,NULL,NULL,NULL,NULL,3,NULL,NULL,NULL,NULL,NULL,NULL,NULL,NULL,NULL,NULL,al1,NULL,NULL,NULL,Suggestions Dismissed,NULL,NULL,NULL,NULL,NULL,NULL,NA,NULL,NULL,NULL,NULL,NULL,NULL,NULL,NULL,NULL,NULL,NULL,NULL,NULL,NULL,NULL,NULL,2018-02-15 12:00:00,2018-02-15 12:00:00,NULL,NULL,NULL,NULL,NULL,NULL,NULL,Trigger,NULL,NULL,NULL,NULL,NULL,NULL,NULL,NULL,NULL,NULL,NULL,NULL,0,2018-01-15 12:00:00,NULL,NULL,2019-01-01 12:00:01,2019-01-01 12:00:01
am,NULL,3,3,NULL,NULL,NULL,1,a,NULL,2018-02-03,2018-01-15,1003,c,Rep3,NULL,NULL,NULL,NULL,NULL,3,NULL,NULL,NULL,NULL,NULL,NULL,NULL,NULL,NULL,NULL,am1,NULL,NULL,NULL,No Action Taken,NULL,NULL,NULL,NULL,NULL,NULL,NA,NULL,NULL,NULL,NULL,NULL,NULL,NULL,NULL,NULL,NULL,NULL,NULL,NULL,NULL,NULL,NULL,2018-02-15 12:00:00,2018-02-15 12:00:00,NULL,NULL,NULL,NULL,NULL,NULL,NULL,Target,NULL,NULL,NULL,NULL,NULL,NULL,NULL,NULL,NULL,NULL,NULL,NULL,0,2018-01-15 12:00:00,NULL,NULL,2019-01-01 12:00:01,2019-01-01 12:00:01
an,NULL,2,2,NULL,NULL,NULL,1,a,NULL,2018-02-01,2018-01-15,1004,d,Rep4,NULL,NULL,NULL,NULL,NULL,3,NULL,NULL,NULL,NULL,NULL,NULL,NULL,NULL,NULL,NULL,an1,NULL,NULL,NULL,Suggestions Dismissed,NULL,NULL,NULL,NULL,NULL,NULL,NA,NULL,NULL,NULL,NULL,NULL,NULL,NULL,NULL,NULL,NULL,NULL,NULL,NULL,NULL,NULL,NULL,2018-02-15 12:00:00,2018-02-15 12:00:00,NULL,NULL,NULL,NULL,NULL,NULL,NULL,Trigger,NULL,NULL,NULL,NULL,NULL,NULL,NULL,NULL,NULL,NULL,NULL,NULL,0,2018-01-15 12:00:00,NULL,NULL,2019-01-01 12:00:01,2019-01-01 12:00:01
ao,NULL,3,3,NULL,NULL,NULL,1,a,NULL,2018-02-02,2018-01-15,1004,d,Rep4,NULL,NULL,NULL,NULL,NULL,3,NULL,NULL,NULL,NULL,NULL,NULL,NULL,NULL,NULL,NULL,ao1,NULL,NULL,NULL,No Action Taken,NULL,NULL,NULL,NULL,NULL,NULL,NA,NULL,NULL,NULL,NULL,NULL,NULL,NULL,NULL,NULL,NULL,NULL,NULL,NULL,NULL,NULL,NULL,2018-02-15 12:00:00,2018-02-15 12:00:00,NULL,NULL,NULL,NULL,NULL,NULL,NULL,Target,NULL,NULL,NULL,NULL,NULL,NULL,NULL,NULL,NULL,NULL,NULL,NULL,0,2018-01-15 12:00:00,NULL,NULL,2019-01-01 12:00:01,2019-01-01 12:00:01
l,NULL,1,1,NULL,NULL,NULL,1,a,NULL,2018-02-03,2018-01-15,1004,d,Rep4,NULL,NULL,NULL,NULL,NULL,3,NULL,NULL,NULL,NULL,NULL,NULL,NULL,NULL,NULL,NULL,l1,NULL,NULL,NULL,Suggestions Completed,NULL,NULL,NULL,NULL,NULL,NULL,NA,NULL,NULL,NULL,NULL,NULL,NULL,NULL,NULL,NULL,NULL,NULL,NULL,NULL,NULL,NULL,NULL,2018-02-15 12:00:00,2018-02-15 12:00:00,NULL,NULL,NULL,NULL,NULL,NULL,NULL,Trigger,NULL,NULL,NULL,NULL,NULL,NULL,NULL,NULL,NULL,NULL,NULL,NULL,1,2018-01-15 12:00:00,NULL,NULL,2019-01-01 12:00:01,2019-01-01 12:00:01
ap,NULL,2,2,NULL,NULL,NULL,1,a,NULL,2018-02-01,2018-01-15,1005,e,Rep5,NULL,NULL,NULL,NULL,NULL,3,NULL,NULL,NULL,NULL,NULL,NULL,NULL,NULL,NULL,NULL,ap1,NULL,NULL,NULL,Suggestions Dismissed,NULL,NULL,NULL,NULL,NULL,NULL,NA,NULL,NULL,NULL,NULL,NULL,NULL,NULL,NULL,NULL,NULL,NULL,NULL,NULL,NULL,NULL,NULL,2018-02-15 12:00:00,2018-02-15 12:00:00,NULL,NULL,NULL,NULL,NULL,NULL,NULL,Target,NULL,NULL,NULL,NULL,NULL,NULL,NULL,NULL,NULL,NULL,NULL,NULL,0,2018-01-15 12:00:00,NULL,NULL,2019-01-01 12:00:01,2019-01-01 12:00:01
aq,NULL,3,3,NULL,NULL,NULL,1,a,NULL,2018-02-02,2018-01-15,1005,e,Rep5,NULL,NULL,NULL,NULL,NULL,3,NULL,NULL,NULL,NULL,NULL,NULL,NULL,NULL,NULL,NULL,aq1,NULL,NULL,NULL,No Action Taken,NULL,NULL,NULL,NULL,NULL,NULL,NA,NULL,NULL,NULL,NULL,NULL,NULL,NULL,NULL,NULL,NULL,NULL,NULL,NULL,NULL,NULL,NULL,2018-02-15 12:00:00,2018-02-15 12:00:00,NULL,NULL,NULL,NULL,NULL,NULL,NULL,Trigger,NULL,NULL,NULL,NULL,NULL,NULL,NULL,NULL,NULL,NULL,NULL,NULL,0,2018-01-15 12:00:00,NULL,NULL,2019-01-01 12:00:01,2019-01-01 12:00:01
o,NULL,1,1,NULL,NULL,NULL,1,a,NULL,2018-02-03,2018-01-15,1005,e,Rep5,NULL,NULL,NULL,NULL,NULL,3,NULL,NULL,NULL,NULL,NULL,NULL,NULL,NULL,NULL,NULL,o1,NULL,NULL,NULL,Suggestions Completed,NULL,NULL,NULL,NULL,NULL,NULL,NA,NULL,NULL,NULL,NULL,NULL,NULL,NULL,NULL,NULL,NULL,NULL,NULL,NULL,NULL,NULL,NULL,2018-02-15 12:00:00,2018-02-15 12:00:00,NULL,NULL,NULL,NULL,NULL,NULL,NULL,Target,NULL,NULL,NULL,NULL,NULL,NULL,NULL,NULL,NULL,NULL,NULL,NULL,1,2018-01-15 12:00:00,NULL,NULL,2019-01-01 12:00:01,2019-01-01 12:00:01
ar,NULL,3,3,NULL,NULL,NULL,1,a,NULL,2018-02-01,2018-01-15,1006,f,Rep6,NULL,NULL,NULL,NULL,NULL,3,NULL,NULL,NULL,NULL,NULL,NULL,NULL,NULL,NULL,NULL,ar1,NULL,NULL,NULL,Suggestions Dismissed,NULL,NULL,NULL,NULL,NULL,NULL,NA,NULL,NULL,NULL,NULL,NULL,NULL,NULL,NULL,NULL,NULL,NULL,NULL,NULL,NULL,NULL,NULL,2018-02-15 12:00:00,2018-02-15 12:00:00,NULL,NULL,NULL,NULL,NULL,NULL,NULL,Trigger,NULL,NULL,NULL,NULL,NULL,NULL,NULL,NULL,NULL,NULL,NULL,NULL,0,2018-01-15 12:00:00,NULL,NULL,2019-01-01 12:00:01,2019-01-01 12:00:01
q,NULL,1,1,NULL,NULL,NULL,1,a,NULL,2018-02-02,2018-01-15,1006,f,Rep6,NULL,NULL,NULL,NULL,NULL,3,NULL,NULL,NULL,NULL,NULL,NULL,NULL,NULL,NULL,NULL,q1,NULL,NULL,NULL,Suggestions Completed,NULL,NULL,NULL,NULL,NULL,NULL,NA,NULL,NULL,NULL,NULL,NULL,NULL,NULL,NULL,NULL,NULL,NULL,NULL,NULL,NULL,NULL,NULL,2018-02-15 12:00:00,2018-02-15 12:00:00,NULL,NULL,NULL,NULL,NULL,NULL,NULL,Target,NULL,NULL,NULL,NULL,NULL,NULL,NULL,NULL,NULL,NULL,NULL,NULL,1,2018-01-15 12:00:00,NULL,NULL,2019-01-01 12:00:01,2019-01-01 12:00:01
r,NULL,2,2,NULL,NULL,NULL,1,a,NULL,2018-02-03,2018-01-15,1006,f,Rep6,NULL,NULL,NULL,NULL,NULL,3,NULL,NULL,NULL,NULL,NULL,NULL,NULL,NULL,NULL,NULL,r1,NULL,NULL,NULL,Suggestions Completed,NULL,NULL,NULL,NULL,NULL,NULL,NA,NULL,NULL,NULL,NULL,NULL,NULL,NULL,NULL,NULL,NULL,NULL,NULL,NULL,NULL,NULL,NULL,2018-02-15 12:00:00,2018-02-15 12:00:00,NULL,NULL,NULL,NULL,NULL,NULL,NULL,Trigger,NULL,NULL,NULL,NULL,NULL,NULL,NULL,NULL,NULL,NULL,NULL,NULL,1,2018-01-15 12:00:00,NULL,NULL,2019-01-01 12:00:01,2019-01-01 12:00:01
as,NULL,3,3,NULL,NULL,NULL,1,a,NULL,2018-02-01,2018-01-15,1007,g,Rep7,NULL,NULL,NULL,NULL,NULL,3,NULL,NULL,NULL,NULL,NULL,NULL,NULL,NULL,NULL,NULL,as1,NULL,NULL,NULL,No Action Taken,NULL,NULL,NULL,NULL,NULL,NULL,NA,NULL,NULL,NULL,NULL,NULL,NULL,NULL,NULL,NULL,NULL,NULL,NULL,NULL,NULL,NULL,NULL,2018-02-15 12:00:00,2018-02-15 12:00:00,NULL,NULL,NULL,NULL,NULL,NULL,NULL,Target,NULL,NULL,NULL,NULL,NULL,NULL,NULL,NULL,NULL,NULL,NULL,NULL,0,2018-01-15 12:00:00,NULL,NULL,2019-01-01 12:00:01,2019-01-01 12:00:01
t,NULL,1,1,NULL,NULL,NULL,1,a,NULL,2018-02-02,2018-01-15,1007,g,Rep7,NULL,NULL,NULL,NULL,NULL,3,NULL,NULL,NULL,NULL,NULL,NULL,NULL,NULL,NULL,NULL,t1,NULL,NULL,NULL,Suggestions Completed,NULL,NULL,NULL,NULL,NULL,NULL,NA,NULL,NULL,NULL,NULL,NULL,NULL,NULL,NULL,NULL,NULL,NULL,NULL,NULL,NULL,NULL,NULL,2018-02-15 12:00:00,2018-02-15 12:00:00,NULL,NULL,NULL,NULL,NULL,NULL,NULL,Trigger,NULL,NULL,NULL,NULL,NULL,NULL,NULL,NULL,NULL,NULL,NULL,NULL,1,2018-01-15 12:00:00,NULL,NULL,2019-01-01 12:00:01,2019-01-01 12:00:01
u,NULL,2,2,NULL,NULL,NULL,1,a,NULL,2018-02-03,2018-01-15,1007,g,Rep7,NULL,NULL,NULL,NULL,NULL,3,NULL,NULL,NULL,NULL,NULL,NULL,NULL,NULL,NULL,NULL,u1,NULL,NULL,NULL,Suggestions Completed,NULL,NULL,NULL,NULL,NULL,NULL,NA,NULL,NULL,NULL,NULL,NULL,NULL,NULL,NULL,NULL,NULL,NULL,NULL,NULL,NULL,NULL,NULL,2018-02-15 12:00:00,2018-02-15 12:00:00,NULL,NULL,NULL,NULL,NULL,NULL,NULL,Target,NULL,NULL,NULL,NULL,NULL,NULL,NULL,NULL,NULL,NULL,NULL,NULL,1,2018-01-15 12:00:00,NULL,NULL,2019-01-01 12:00:01,2019-01-01 12:00:01
v,NULL,1,1,NULL,NULL,NULL,1,a,NULL,2018-02-01,2018-01-15,1008,h,Rep8,NULL,NULL,NULL,NULL,NULL,3,NULL,NULL,NULL,NULL,NULL,NULL,NULL,NULL,NULL,NULL,v1,NULL,NULL,NULL,Suggestions Completed,NULL,NULL,NULL,NULL,NULL,NULL,NA,NULL,NULL,NULL,NULL,NULL,NULL,NULL,NULL,NULL,NULL,NULL,NULL,NULL,NULL,NULL,NULL,2018-02-15 12:00:00,2018-02-15 12:00:00,NULL,NULL,NULL,NULL,NULL,NULL,NULL,Trigger,NULL,NULL,NULL,NULL,NULL,NULL,NULL,NULL,NULL,NULL,NULL,NULL,1,2018-01-15 12:00:00,NULL,NULL,2019-01-01 12:00:01,2019-01-01 12:00:01
w,NULL,2,2,NULL,NULL,NULL,1,a,NULL,2018-02-02,2018-01-15,1008,h,Rep8,NULL,NULL,NULL,NULL,NULL,3,NULL,NULL,NULL,NULL,NULL,NULL,NULL,NULL,NULL,NULL,w1,NULL,NULL,NULL,Suggestions Completed,NULL,NULL,NULL,NULL,NULL,NULL,NA,NULL,NULL,NULL,NULL,NULL,NULL,NULL,NULL,NULL,NULL,NULL,NULL,NULL,NULL,NULL,NULL,2018-02-15 12:00:00,2018-02-15 12:00:00,NULL,NULL,NULL,NULL,NULL,NULL,NULL,Target,NULL,NULL,NULL,NULL,NULL,NULL,NULL,NULL,NULL,NULL,NULL,NULL,1,2018-01-15 12:00:00,NULL,NULL,2019-01-01 12:00:01,2019-01-01 12:00:01
x,NULL,3,3,NULL,NULL,NULL,1,a,NULL,2018-02-03,2018-01-15,1008,h,Rep8,NULL,NULL,NULL,NULL,NULL,3,NULL,NULL,NULL,NULL,NULL,NULL,NULL,NULL,NULL,NULL,x1,NULL,NULL,NULL,Suggestions Completed,NULL,NULL,NULL,NULL,NULL,NULL,NA,NULL,NULL,NULL,NULL,NULL,NULL,NULL,NULL,NULL,NULL,NULL,NULL,NULL,NULL,NULL,NULL,2018-02-15 12:00:00,2018-02-15 12:00:00,NULL,NULL,NULL,NULL,NULL,NULL,NULL,Trigger,NULL,NULL,NULL,NULL,NULL,NULL,NULL,NULL,NULL,NULL,NULL,NULL,1,2018-01-15 12:00:00,NULL,NULL,2019-01-01 12:00:01,2019-01-01 12:00:01
aa,NULL,3,3,NULL,NULL,NULL,1,a,NULL,2018-02-01,2018-01-15,1009,i,Rep9,NULL,NULL,NULL,NULL,NULL,3,NULL,NULL,NULL,NULL,NULL,NULL,NULL,NULL,NULL,NULL,aa1,NULL,NULL,NULL,Suggestions Completed,NULL,NULL,NULL,NULL,NULL,NULL,NA,NULL,NULL,NULL,NULL,NULL,NULL,NULL,NULL,NULL,NULL,NULL,NULL,NULL,NULL,NULL,NULL,2018-02-15 12:00:00,2018-02-15 12:00:00,NULL,NULL,NULL,NULL,NULL,NULL,NULL,Target,NULL,NULL,NULL,NULL,NULL,NULL,NULL,NULL,NULL,NULL,NULL,NULL,1,2018-01-15 12:00:00,NULL,NULL,2019-01-01 12:00:01,2019-01-01 12:00:01
y,NULL,1,1,NULL,NULL,NULL,1,a,NULL,2018-02-02,2018-01-15,1009,i,Rep9,NULL,NULL,NULL,NULL,NULL,3,NULL,NULL,NULL,NULL,NULL,NULL,NULL,NULL,NULL,NULL,y1,NULL,NULL,NULL,Suggestions Completed,NULL,NULL,NULL,NULL,NULL,NULL,NA,NULL,NULL,NULL,NULL,NULL,NULL,NULL,NULL,NULL,NULL,NULL,NULL,NULL,NULL,NULL,NULL,2018-02-15 12:00:00,2018-02-15 12:00:00,NULL,NULL,NULL,NULL,NULL,NULL,NULL,Trigger,NULL,NULL,NULL,NULL,NULL,NULL,NULL,NULL,NULL,NULL,NULL,NULL,1,2018-01-15 12:00:00,NULL,NULL,2019-01-01 12:00:01,2019-01-01 12:00:01
z,NULL,2,2,NULL,NULL,NULL,1,a,NULL,2018-02-03,2018-01-15,1009,i,Rep9,NULL,NULL,NULL,NULL,NULL,3,NULL,NULL,NULL,NULL,NULL,NULL,NULL,NULL,NULL,NULL,z1,NULL,NULL,NULL,Suggestions Completed,NULL,NULL,NULL,NULL,NULL,NULL,NA,NULL,NULL,NULL,NULL,NULL,NULL,NULL,NULL,NULL,NULL,NULL,NULL,NULL,NULL,NULL,NULL,2018-02-15 12:00:00,2018-02-15 12:00:00,NULL,NULL,NULL,NULL,NULL,NULL,NULL,Target,NULL,NULL,NULL,NULL,NULL,NULL,NULL,NULL,NULL,NULL,NULL,NULL,1,2018-01-15 12:00:00,NULL,NULL,2019-01-01 12:00:01,2019-01-01 12:00:01
ab,NULL,1,1,NULL,NULL,NULL,1,a,NULL,2018-02-01,2018-01-15,1010,j,Rep10,NULL,NULL,NULL,NULL,NULL,3,NULL,NULL,NULL,NULL,NULL,NULL,NULL,NULL,NULL,NULL,ab1,NULL,NULL,NULL,Suggestions Completed,NULL,NULL,NULL,NULL,NULL,NULL,NA,NULL,NULL,NULL,NULL,NULL,NULL,NULL,NULL,NULL,NULL,NULL,NULL,NULL,NULL,NULL,NULL,2018-02-15 12:00:00,2018-02-15 12:00:00,NULL,NULL,NULL,NULL,NULL,NULL,NULL,Trigger,NULL,NULL,NULL,NULL,NULL,NULL,NULL,NULL,NULL,NULL,NULL,NULL,1,2018-01-15 12:00:00,NULL,NULL,2019-01-01 12:00:01,2019-01-01 12:00:01
ac,NULL,2,2,NULL,NULL,NULL,1,a,NULL,2018-02-02,2018-01-15,1010,j,Rep10,NULL,NULL,NULL,NULL,NULL,3,NULL,NULL,NULL,NULL,NULL,NULL,NULL,NULL,NULL,NULL,ac1,NULL,NULL,NULL,Suggestions Completed,NULL,NULL,NULL,NULL,NULL,NULL,NA,NULL,NULL,NULL,NULL,NULL,NULL,NULL,NULL,NULL,NULL,NULL,NULL,NULL,NULL,NULL,NULL,2018-02-15 12:00:00,2018-02-15 12:00:00,NULL,NULL,NULL,NULL,NULL,NULL,NULL,Target,NULL,NULL,NULL,NULL,NULL,NULL,NULL,NULL,NULL,NULL,NULL,NULL,1,2018-01-15 12:00:00,NULL,NULL,2019-01-01 12:00:01,2019-01-01 12:00:01
ad,NULL,3,3,NULL,NULL,NULL,1,a,NULL,2018-02-03,2018-01-15,1010,j,Rep10,NULL,NULL,NULL,NULL,NULL,3,NULL,NULL,NULL,NULL,NULL,NULL,NULL,NULL,NULL,NULL,ad1,NULL,NULL,NULL,Suggestions Completed,NULL,NULL,NULL,NULL,NULL,NULL,NA,NULL,NULL,NULL,NULL,NULL,NULL,NULL,NULL,NULL,NULL,NULL,NULL,NULL,NULL,NULL,NULL,2018-02-15 12:00:00,2018-02-15 12:00:00,NULL,NULL,NULL,NULL,NULL,NULL,NULL,Trigger,NULL,NULL,NULL,NULL,NULL,NULL,NULL,NULL,NULL,NULL,NULL,NULL,1,2018-01-15 12:00:00,NULL,NULL,2019-01-01 12:00:01,2019-01-01 12:00:01
